%YAML 1.1
%TAG !u! tag:unity3d.com,2011:
--- !u!74 &7400000
AnimationClip:
  m_ObjectHideFlags: 0
  m_CorrespondingSourceObject: {fileID: 0}
  m_PrefabInstance: {fileID: 0}
  m_PrefabAsset: {fileID: 0}
  m_Name: Interaction3
  serializedVersion: 6
  m_Legacy: 0
  m_Compressed: 0
  m_UseHighQualityCurve: 1
  m_RotationCurves: []
  m_CompressedRotationCurves: []
  m_EulerCurves: []
  m_PositionCurves: []
  m_ScaleCurves: []
  m_FloatCurves: []
  m_PPtrCurves:
  - curve:
    - time: 0
      value: {fileID: 21300000, guid: f2940ac9110fc224bbc2fc93b1b6c36d, type: 3}
    - time: 0.016666668
      value: {fileID: 21300000, guid: 93d2c43cfe792cc448873fee28594a29, type: 3}
    - time: 0.033333335
      value: {fileID: 21300000, guid: dadea5d68d407394485c799fa3c91a40, type: 3}
    - time: 0.05
      value: {fileID: 21300000, guid: b170c8b1b14a3884fb53cfe8a2eed31e, type: 3}
    - time: 0.06666667
      value: {fileID: 21300000, guid: 5e32adc341924484f83fd30b1a5c77c3, type: 3}
    - time: 0.083333336
      value: {fileID: 21300000, guid: 9e5beed09ea941e49bd988f955231527, type: 3}
    - time: 0.1
      value: {fileID: 21300000, guid: 2ab72c99911a7ad46888673174c845ae, type: 3}
    - time: 0.11666667
      value: {fileID: 21300000, guid: 44289781341d90a4fa2551e8a1399ea9, type: 3}
    - time: 0.13333334
      value: {fileID: 21300000, guid: d33a8f80b7b024b449d5f0600b91fe2b, type: 3}
    - time: 0.15
      value: {fileID: 21300000, guid: 49459635a54f96e4088954ba86bb3144, type: 3}
    - time: 0.16666667
      value: {fileID: 21300000, guid: 90ef83d606d8496449a2ff0476b5814c, type: 3}
    - time: 0.18333334
      value: {fileID: 21300000, guid: 4073a21aa6e842f4bb9eec13dd63a283, type: 3}
    - time: 0.2
      value: {fileID: 21300000, guid: af154e7cc003f584e8cae472a555008e, type: 3}
    - time: 0.21666667
      value: {fileID: 21300000, guid: 432df547e1a348e4180c3ad9644a75cd, type: 3}
    - time: 0.23333333
      value: {fileID: 21300000, guid: 0c47d1b8f0ea67b4baa6a5b02313cd3b, type: 3}
    - time: 0.25
      value: {fileID: 21300000, guid: 47bed781c1667fb4ea56d7e6fba0a9d2, type: 3}
    - time: 0.26666668
      value: {fileID: 21300000, guid: 2919f9ee1d23caf4e8c03fb0f07aebe9, type: 3}
    - time: 0.28333333
      value: {fileID: 21300000, guid: 7500fc042d92ffc49bbb913cc5a066e1, type: 3}
    - time: 0.3
      value: {fileID: 21300000, guid: 78dad8d61f8b83643b21ca0b05893eb2, type: 3}
    - time: 0.31666666
      value: {fileID: 21300000, guid: ff72275f3bcfdbe4897aecb4a2ac8322, type: 3}
    - time: 0.33333334
      value: {fileID: 21300000, guid: ae0fc81fd88c54b498c31129264b81ea, type: 3}
    - time: 0.35
      value: {fileID: 21300000, guid: 8d810ae8f26ce4f4c918560b19d8d39f, type: 3}
    - time: 0.36666667
      value: {fileID: 21300000, guid: 2ee93a8bd27428d41804b042efbc8f69, type: 3}
    - time: 0.38333333
      value: {fileID: 21300000, guid: eab128278f828324c9c9e01c09908533, type: 3}
    - time: 0.4
      value: {fileID: 21300000, guid: b074fd6e82433a24b90c82cac597ef50, type: 3}
    - time: 0.41666666
      value: {fileID: 21300000, guid: f26af68d56f2f024999fdc2145e2a8f3, type: 3}
    - time: 0.43333334
      value: {fileID: 21300000, guid: 058fc9fceaa4aff43a74c034218b4809, type: 3}
    - time: 0.45
      value: {fileID: 21300000, guid: e1031caf52b25314ca902013a16b1b30, type: 3}
    - time: 0.46666667
      value: {fileID: 21300000, guid: 9be6e7e6aeddaaf40942e10a24adbd3b, type: 3}
    - time: 0.48333332
      value: {fileID: 21300000, guid: 103b1478c53d7c6419f91015fd3a1bb4, type: 3}
    - time: 0.5
      value: {fileID: 21300000, guid: 82c581060f05a294e9f8cfbdb42d2381, type: 3}
    - time: 0.51666665
      value: {fileID: 21300000, guid: 045bbc8a0ab9a084ebb35f8f587a3784, type: 3}
    - time: 0.53333336
      value: {fileID: 21300000, guid: 89d420e88e117754e9daed17476e2ceb, type: 3}
    - time: 0.55
      value: {fileID: 21300000, guid: 52b30517bee9a824a97cf2da1126da60, type: 3}
    - time: 0.56666666
      value: {fileID: 21300000, guid: 22682493d03f5954cb178e08194c950a, type: 3}
    - time: 0.5833333
      value: {fileID: 21300000, guid: fd6138150b1681d428c843908bc0a75b, type: 3}
    - time: 0.6
      value: {fileID: 21300000, guid: 63386dc1ba83e9d498bfbdf88dd52952, type: 3}
    - time: 0.6166667
      value: {fileID: 21300000, guid: 07436b99658c7ed4c97ab2963ded00a1, type: 3}
    - time: 0.6333333
      value: {fileID: 21300000, guid: 9b01218c52bef504a9da6f862d2494de, type: 3}
    - time: 0.65
      value: {fileID: 21300000, guid: a8ec0a0dad513ea419a9da8e1205c178, type: 3}
    - time: 0.6666667
      value: {fileID: 21300000, guid: a88a9ba5b7bc0804da816484cde415e7, type: 3}
    - time: 0.68333334
      value: {fileID: 21300000, guid: bb801c26275099147acd0796a9f8ab1d, type: 3}
    - time: 0.7
      value: {fileID: 21300000, guid: 9333c55add52149468de8e3d1072b83c, type: 3}
    - time: 0.71666664
      value: {fileID: 21300000, guid: c073496401a76e24a9d0e38afff4e6b6, type: 3}
    - time: 0.73333335
      value: {fileID: 21300000, guid: 76ccb0d59c803454dbca94643eb4967c, type: 3}
    - time: 0.75
      value: {fileID: 21300000, guid: 2195d94b2ecee4c4ab21c79e94d141b2, type: 3}
    - time: 0.76666665
      value: {fileID: 21300000, guid: ed8161370b8c45d44ae0e2ba6dde89c5, type: 3}
    - time: 0.78333336
      value: {fileID: 21300000, guid: 209b51c9ff7b8c44ab4551c77a0c4ad8, type: 3}
    - time: 0.8
      value: {fileID: 21300000, guid: 5dcda92b47658dd4994be905e286eec4, type: 3}
    - time: 0.81666666
      value: {fileID: 21300000, guid: 139b905fecf1e84479210ce4b06b5b4c, type: 3}
    - time: 0.8333333
      value: {fileID: 21300000, guid: 7beaf4ca88467d1498da968c11ca5f96, type: 3}
    - time: 0.85
      value: {fileID: 21300000, guid: d1dabd0c1d9a0e744a40bbed51e4f16e, type: 3}
    - time: 0.8666667
      value: {fileID: 21300000, guid: 4047be37abf3fe946a484169ff7490bb, type: 3}
    - time: 0.8833333
      value: {fileID: 21300000, guid: 9f88be6588617854ebbf8cefcf40e026, type: 3}
    - time: 0.9
      value: {fileID: 21300000, guid: 11af1627ee0f54b44832f507d9d2a63d, type: 3}
    - time: 0.9166667
      value: {fileID: 21300000, guid: 0ae8a5d6b0891db49afb4fef7c9f9849, type: 3}
    - time: 0.93333334
      value: {fileID: 21300000, guid: 213148053527dc1468058347026317ae, type: 3}
    - time: 0.95
      value: {fileID: 21300000, guid: d59020c90867f244d8266ae82cc58e0b, type: 3}
    - time: 0.96666664
      value: {fileID: 21300000, guid: 28bc9156eae5cdf418aa985f722d19b9, type: 3}
    - time: 0.98333335
      value: {fileID: 21300000, guid: ca4bf027db223824782ab39209c650a7, type: 3}
    - time: 1
      value: {fileID: 21300000, guid: 0284b7f14fb902a41a961b894940d305, type: 3}
    - time: 1.0166667
      value: {fileID: 21300000, guid: 3a2916e8d66d41f4f8da2bee52ad3703, type: 3}
    - time: 1.0333333
      value: {fileID: 21300000, guid: cdbbe072e050c9143925f3eccd95b4c3, type: 3}
    - time: 1.05
      value: {fileID: 21300000, guid: 68fb37e16d366174ab107385244fdea3, type: 3}
    - time: 1.0666667
      value: {fileID: 21300000, guid: a1aa4c1e3a9bbbf47842bf7fc63069b6, type: 3}
    - time: 1.0833334
      value: {fileID: 21300000, guid: 0f3b733503526a045b1167d741bc4464, type: 3}
    - time: 1.1
      value: {fileID: 21300000, guid: 6cf870571b3223247bf59a80c15f1f37, type: 3}
    - time: 1.1166667
      value: {fileID: 21300000, guid: a490ecdead7f3a14eb9b22ce29717026, type: 3}
    - time: 1.1333333
      value: {fileID: 21300000, guid: a731dea1eb343b747923f52007190507, type: 3}
    - time: 1.15
      value: {fileID: 21300000, guid: 3c214152c38b5c146a42b930623a0f5c, type: 3}
    - time: 1.1666666
      value: {fileID: 21300000, guid: c895e8cc751d61142971efcd05196fa2, type: 3}
    - time: 1.1833333
      value: {fileID: 21300000, guid: ac64130595876df4fa0d1541e7b6aeee, type: 3}
    - time: 1.2
      value: {fileID: 21300000, guid: d9585739a3dc81544845460750915e90, type: 3}
    - time: 1.2166667
      value: {fileID: 21300000, guid: 49ea4f9ae58c1c649b9cc3bff9ba9ae0, type: 3}
    - time: 1.2333333
      value: {fileID: 21300000, guid: 46fc4cd5b1040a04497b5a4955d85ddf, type: 3}
    - time: 1.25
      value: {fileID: 21300000, guid: c219ded2b9e29fe4383eecf20f6f1566, type: 3}
    - time: 1.2666667
      value: {fileID: 21300000, guid: 5918d7cc53d82aa4788667a0c3a63486, type: 3}
    - time: 1.2833333
      value: {fileID: 21300000, guid: aec71f6dd948fab46959c69b4092bdd1, type: 3}
    - time: 1.3
      value: {fileID: 21300000, guid: b2a08bd6fce7e7e4cb2c3f0e95eb6705, type: 3}
    - time: 1.3166667
      value: {fileID: 21300000, guid: 03dadf551ec1b7a42966e7572105ba5b, type: 3}
    - time: 1.3333334
      value: {fileID: 21300000, guid: 01222a5a5f8e089469f54fe10ebcd964, type: 3}
    - time: 1.35
      value: {fileID: 21300000, guid: ebf09417dd3929e45b51b7d428136276, type: 3}
    - time: 1.3666667
      value: {fileID: 21300000, guid: e93262f489bf58546b9ac161d5a9753b, type: 3}
    - time: 1.3833333
      value: {fileID: 21300000, guid: 8fd311e6470038642921875e67a36113, type: 3}
    - time: 1.4
      value: {fileID: 21300000, guid: 4ccb4b3be0e9ecc489bd100ce2a7412b, type: 3}
    - time: 1.4166666
      value: {fileID: 21300000, guid: bd2fb8bf25e53ea4b8b3ea6c9b1a75ac, type: 3}
    - time: 1.4333333
      value: {fileID: 21300000, guid: b4a2071023157ad4f991d9d36e6cb6c6, type: 3}
    - time: 1.45
      value: {fileID: 21300000, guid: 0752a9bda86b35946899e303fe6d2b7a, type: 3}
    - time: 1.4666667
      value: {fileID: 21300000, guid: 4b24f66cda0f9644c9cb9b3c9add0357, type: 3}
    - time: 1.4833333
      value: {fileID: 21300000, guid: b373d21e8f47f5147ae493a8056f9f1c, type: 3}
    - time: 1.5
      value: {fileID: 21300000, guid: 7e11f456b6777ed4b97d92398034f615, type: 3}
    - time: 1.5166667
      value: {fileID: 21300000, guid: a005ae6dc512d7541b5a9a4ab4fcfae7, type: 3}
    - time: 1.5333333
      value: {fileID: 21300000, guid: 4db481930b7bd0545bd7665f9caca947, type: 3}
    - time: 1.55
      value: {fileID: 21300000, guid: d435aab3c30b1b346b299ab7063dbaa8, type: 3}
    - time: 1.5666667
      value: {fileID: 21300000, guid: 65e21e3cbad217f4bb855914186f9b40, type: 3}
    - time: 1.5833334
      value: {fileID: 21300000, guid: 0737dfb4e62214c40ace78142c34617e, type: 3}
    - time: 1.6
      value: {fileID: 21300000, guid: d28e029ccaedd864690eb765dd37baa0, type: 3}
    - time: 1.6166667
      value: {fileID: 21300000, guid: a748647091fc7ba4f908735cf33e4508, type: 3}
    - time: 1.6333333
      value: {fileID: 21300000, guid: e05dbbde88e9dba4f8bf29b8f3bf1868, type: 3}
    - time: 1.65
      value: {fileID: 21300000, guid: e6133da75499e3f40a2cb7baf0687092, type: 3}
    - time: 1.6666666
      value: {fileID: 21300000, guid: 9336f934266b2f64e8f09c20dd58b145, type: 3}
    - time: 1.6833333
      value: {fileID: 21300000, guid: b759001efaebac04fa7c8f7cc5183ad5, type: 3}
    - time: 1.7
      value: {fileID: 21300000, guid: e6b7031104d84e74a9eb05851381e4ab, type: 3}
    - time: 1.7166667
      value: {fileID: 21300000, guid: 048293e05a5367342973f7625f86e9da, type: 3}
    - time: 1.7333333
      value: {fileID: 21300000, guid: d9cbe55d7d106c945915b57a1dd0519f, type: 3}
    - time: 1.75
      value: {fileID: 21300000, guid: 16c2c15f1df387c48b1afac09aa8439d, type: 3}
    - time: 1.7666667
      value: {fileID: 21300000, guid: 2207eaf1f33b4e6439e6c6349699ef01, type: 3}
    - time: 1.7833333
      value: {fileID: 21300000, guid: e8cb52eac22078d4bb82f3e394c098ba, type: 3}
    - time: 1.8
      value: {fileID: 21300000, guid: a44cfb5b6f884c1468928de9e298a2b5, type: 3}
    - time: 1.8166667
      value: {fileID: 21300000, guid: 08537927a3280c946b3f2812ae1bd61f, type: 3}
    - time: 1.8333334
      value: {fileID: 21300000, guid: 542ba618452252f4985ab8ecc1de3f4a, type: 3}
    - time: 1.85
      value: {fileID: 21300000, guid: 2fa1eacd78b34404198dc4f50f586a61, type: 3}
    - time: 1.8666667
      value: {fileID: 21300000, guid: f79cda661c7ee474db87024d444cf108, type: 3}
    - time: 1.8833333
      value: {fileID: 21300000, guid: 3820f51f966cba7458d7865888418a0b, type: 3}
    - time: 1.9
      value: {fileID: 21300000, guid: 983f2d19dda01be44b9e782d76fae6e8, type: 3}
    - time: 1.9166666
      value: {fileID: 21300000, guid: 592ad1e3cf5675c4a829fc54581bdab3, type: 3}
    - time: 1.9333333
      value: {fileID: 21300000, guid: 5879dfdfef321634da30e06647ef052c, type: 3}
    - time: 1.95
      value: {fileID: 21300000, guid: bc1cb0e4ff534e746aa779328fe85f41, type: 3}
    - time: 1.9666667
      value: {fileID: 21300000, guid: 7b4cb3b77c96dc2458c319a1a18e612d, type: 3}
    - time: 1.9833333
      value: {fileID: 21300000, guid: 9b27e881d2a36c245ae8b0990f88257e, type: 3}
    - time: 2
      value: {fileID: 21300000, guid: 3ff44062a43dd84448d8c98d0d994d91, type: 3}
    - time: 2.0166667
      value: {fileID: 21300000, guid: 2c6401d9891ea254887b2bcd50dc0b33, type: 3}
    - time: 2.0333333
      value: {fileID: 21300000, guid: 209919c646bcc074c80d78db59f33448, type: 3}
    - time: 2.05
      value: {fileID: 21300000, guid: 4b17c35cd0f6dc040ac6a1d8795dd0d6, type: 3}
    - time: 2.0666666
      value: {fileID: 21300000, guid: b4038bb89d7fba14abc068d186b896f6, type: 3}
    - time: 2.0833333
      value: {fileID: 21300000, guid: 3622b49635784f44c9243950b278202b, type: 3}
    - time: 2.1
      value: {fileID: 21300000, guid: 3e9258dba324d5d44ba3c315050baa03, type: 3}
    - time: 2.1166666
      value: {fileID: 21300000, guid: bd40ad8a6594a4a4da1348105684fbad, type: 3}
    - time: 2.1333334
      value: {fileID: 21300000, guid: 7b04c7ef852c193449d67c7339531f57, type: 3}
    - time: 2.15
      value: {fileID: 21300000, guid: c59389a473a6f4e488aa824ecd2efbeb, type: 3}
    - time: 2.1666667
      value: {fileID: 21300000, guid: 8daf963697e2e4440951fe43ab5829a1, type: 3}
    - time: 2.1833334
      value: {fileID: 21300000, guid: 199613d681c16ab428d48425288a8abc, type: 3}
    - time: 2.2
      value: {fileID: 21300000, guid: 9c688d92eb774ee4e887abd5c511606c, type: 3}
    - time: 2.2166667
      value: {fileID: 21300000, guid: cf9d68d8a6839be4297b62fe60fee2a0, type: 3}
    - time: 2.2333333
      value: {fileID: 21300000, guid: f6c67ab445b6f864b982703010aa5de1, type: 3}
    - time: 2.25
      value: {fileID: 21300000, guid: 0e225c697e8714a458ae5b580d493373, type: 3}
    - time: 2.2666667
      value: {fileID: 21300000, guid: c084c48e40e7a094c9ed04a172f951ea, type: 3}
    - time: 2.2833333
      value: {fileID: 21300000, guid: 7dcbb190d32fd0a409c6636c0bf8bb08, type: 3}
    - time: 2.3
      value: {fileID: 21300000, guid: b2963cd1555e5fd4a8cb5005e504af37, type: 3}
    - time: 2.3166666
      value: {fileID: 21300000, guid: f6726ab241c2067429b82db464275f1a, type: 3}
    - time: 2.3333333
      value: {fileID: 21300000, guid: 679b3d05c68e6614094334fc5312c4c9, type: 3}
    - time: 2.35
      value: {fileID: 21300000, guid: 03dce13c84a07f94980a8ab79910fad6, type: 3}
    - time: 2.3666666
      value: {fileID: 21300000, guid: 434619bbb65aaea4b953a16485e0170d, type: 3}
    - time: 2.3833334
      value: {fileID: 21300000, guid: fc4054b37ce44cc42afcab5db2b3aa1e, type: 3}
    - time: 2.4
      value: {fileID: 21300000, guid: 85f8622ed0a8c8244b389d3c8cedc705, type: 3}
    - time: 2.4166667
      value: {fileID: 21300000, guid: 9383b6e2235046b41b380d91a6f3e6fc, type: 3}
    - time: 2.4333334
      value: {fileID: 21300000, guid: b19f51267e6e2ce4ea6df8b02b094964, type: 3}
    - time: 2.45
      value: {fileID: 21300000, guid: 98823fb506d93d849ad35bb7fc8cbdbc, type: 3}
    - time: 2.4666667
      value: {fileID: 21300000, guid: 1b1ff4ac8aa17d5409483e7c5735b6b0, type: 3}
    - time: 2.4833333
      value: {fileID: 21300000, guid: 71a1a047c8a3eaa4c91dd19269ada411, type: 3}
    - time: 2.5
      value: {fileID: 21300000, guid: 6ac9f2d9370aa63478ccda411262107b, type: 3}
    - time: 2.5166667
      value: {fileID: 21300000, guid: 670ef67cbc1e9bb42a7a3d53c29fdb11, type: 3}
    - time: 2.5333333
      value: {fileID: 21300000, guid: e3eb1136a2995f74f920db8bbceb1081, type: 3}
    - time: 2.55
      value: {fileID: 21300000, guid: 9ec49130bcf55a54c970dabf56a1a6a1, type: 3}
    - time: 2.5666666
      value: {fileID: 21300000, guid: 2ad0d9a319a4ac44e87dc19a7afc30ee, type: 3}
    - time: 2.5833333
      value: {fileID: 21300000, guid: be49846da9a76a747a4a5e0ab2059b72, type: 3}
    - time: 2.6
      value: {fileID: 21300000, guid: 8629d4fc2a2f7c94f89bf5008cfb5bee, type: 3}
    - time: 2.6166666
      value: {fileID: 21300000, guid: de016dcd7f0465a44921866c43513aa8, type: 3}
    - time: 2.6333334
      value: {fileID: 21300000, guid: 20163d876630c7d46a41c8415bdc0fd8, type: 3}
    - time: 2.65
      value: {fileID: 21300000, guid: 776106ff1b74f734e886c201293aeb7e, type: 3}
    - time: 2.6666667
      value: {fileID: 21300000, guid: 4b2d056285f02e34482609fd0d72c7bb, type: 3}
    - time: 2.6833334
      value: {fileID: 21300000, guid: 1a1f7f6e9cb01e54080203cb704b08ee, type: 3}
    - time: 2.7
      value: {fileID: 21300000, guid: b3b4ffdaee6cb1946b046779f90f4b2d, type: 3}
    - time: 2.7166667
      value: {fileID: 21300000, guid: c9c3fdfe70fd06e44b45c4eb62c1820e, type: 3}
    - time: 2.7333333
      value: {fileID: 21300000, guid: 47d944daf72a1924c8ae6455df949ec5, type: 3}
    - time: 2.75
      value: {fileID: 21300000, guid: c453d1d90efc22b46808485d5e0135f9, type: 3}
    - time: 2.7666667
      value: {fileID: 21300000, guid: 572ef53eb93cd23418c3c44384441aec, type: 3}
    - time: 2.7833333
      value: {fileID: 21300000, guid: 35a0a5ea5969f1c45b3302f3e3a6bb44, type: 3}
    - time: 2.8
      value: {fileID: 21300000, guid: 7433305472f7d3a45ab31af249e0d05e, type: 3}
    - time: 2.8166666
      value: {fileID: 21300000, guid: d04924bb1944318468c53d628cb92bde, type: 3}
    - time: 2.8333333
      value: {fileID: 21300000, guid: a33b589e28cecbe49b10b80490538c09, type: 3}
    - time: 2.85
      value: {fileID: 21300000, guid: 1788ee639b741f442b0c182ba714a62d, type: 3}
    - time: 2.8666666
      value: {fileID: 21300000, guid: f8a325117e9540c45844599720f4d79a, type: 3}
    - time: 2.8833334
      value: {fileID: 21300000, guid: e845f3ddb50a1814d8cd80654f61c909, type: 3}
    - time: 2.9
      value: {fileID: 21300000, guid: 01f8e5dc6e5535e4ab15946475876f09, type: 3}
    - time: 2.9166667
      value: {fileID: 21300000, guid: 8f72b30f6d2bca943886b4b343ce4358, type: 3}
    - time: 2.9333334
      value: {fileID: 21300000, guid: 9197dccf8c754534c96d24ed69a1b5c2, type: 3}
    - time: 2.95
      value: {fileID: 21300000, guid: b2cfec16ccb8f8b4ab4ca8d613b5a219, type: 3}
    - time: 2.9666667
      value: {fileID: 21300000, guid: 454aca9358b88c643ab1b9de7900aa15, type: 3}
    - time: 2.9833333
      value: {fileID: 21300000, guid: 2fcc5916be0d672428c684e04bc9b840, type: 3}
    - time: 3
      value: {fileID: 21300000, guid: 8cc5da2dd4e3f2a49af71c5512f94f0b, type: 3}
    - time: 3.0166667
      value: {fileID: 21300000, guid: 6073a75458c0dce46ae9edc669b64679, type: 3}
    - time: 3.0333333
      value: {fileID: 21300000, guid: 4486e5ef743de8b47b3fd631c059f77d, type: 3}
    - time: 3.05
      value: {fileID: 21300000, guid: b15dd6a7678111146b77d1cba3f57d59, type: 3}
    - time: 3.0666666
      value: {fileID: 21300000, guid: 84698266f04cea147969f943a455fce8, type: 3}
    - time: 3.0833333
      value: {fileID: 21300000, guid: 3409e2584b77b8642a8720da8abf5f23, type: 3}
    - time: 3.1
      value: {fileID: 21300000, guid: e5603a36b7ca84d46b5b623e8857f851, type: 3}
    - time: 3.1166666
      value: {fileID: 21300000, guid: eca07d2cd684e8d43a6922d91cde0dc9, type: 3}
    - time: 3.1333334
      value: {fileID: 21300000, guid: 001e80c13460d40438c487441c1470ee, type: 3}
    - time: 3.15
      value: {fileID: 21300000, guid: 6cdb7e964f627a94d99e9992c8f0e15c, type: 3}
    - time: 3.1666667
      value: {fileID: 21300000, guid: db6a1c0a64b412b45be19db4382ac314, type: 3}
    - time: 3.1833334
      value: {fileID: 21300000, guid: 389b6e90dc8ba384ea220deb063d58b7, type: 3}
    - time: 3.2
      value: {fileID: 21300000, guid: 7c7a605cc83cc3e43b25b933316a7d39, type: 3}
    - time: 3.2166667
      value: {fileID: 21300000, guid: 8a8147e785085944daab2399398c02df, type: 3}
    - time: 3.2333333
      value: {fileID: 21300000, guid: 9cd51a4f9de611d47abd35eeb0175207, type: 3}
    - time: 3.25
      value: {fileID: 21300000, guid: 3bd6a05d093726e4f838097b10c5ff04, type: 3}
    - time: 3.2666667
      value: {fileID: 21300000, guid: aa95caf223c8a0642bcf417fc93c0fbd, type: 3}
    - time: 3.2833333
      value: {fileID: 21300000, guid: 7c448922ae72df24885a0b36f86a8655, type: 3}
    - time: 3.3
      value: {fileID: 21300000, guid: ebbe3841c1734f64faaeb3193c391b18, type: 3}
    - time: 3.3166666
      value: {fileID: 21300000, guid: b6421abe3f3bbdb4d97e60428664ac24, type: 3}
    - time: 3.3333333
      value: {fileID: 21300000, guid: 28cf548b3cb33dc4f89e26ec1c57ce80, type: 3}
    - time: 3.35
      value: {fileID: 21300000, guid: 7a8c5afb93f4a154c960383ed95add45, type: 3}
    - time: 3.3666666
      value: {fileID: 21300000, guid: d040cad9cb18e0d4fbcb8c2ba3762fde, type: 3}
    - time: 3.3833334
      value: {fileID: 21300000, guid: 430f61aae1471444fa8e7b8895705a95, type: 3}
    - time: 3.4
      value: {fileID: 21300000, guid: f0506f66f5b68974693993b783c42e7d, type: 3}
    - time: 3.4166667
      value: {fileID: 21300000, guid: ca295421db394904397a10b9481f52d5, type: 3}
    - time: 3.4333334
      value: {fileID: 21300000, guid: c02f4c5035c9f5848b5815bd7b1b86f2, type: 3}
    - time: 3.45
      value: {fileID: 21300000, guid: 81db3fe6a27788a4c9eebbb977080f37, type: 3}
    - time: 3.4666667
      value: {fileID: 21300000, guid: 2a374635962a6b0439e878e6e711dfad, type: 3}
    - time: 3.4833333
      value: {fileID: 21300000, guid: 984bcb7a98f40664e84d4e4ed35993fb, type: 3}
    - time: 3.5
      value: {fileID: 21300000, guid: 4b33f3f541cc1e2428034425330fd054, type: 3}
    - time: 3.5166667
      value: {fileID: 21300000, guid: 463a49e175e65b6408e1f1058affc433, type: 3}
    - time: 3.5333333
      value: {fileID: 21300000, guid: 623f02b5f2c67bc45b6b37236c49fea6, type: 3}
    - time: 3.55
      value: {fileID: 21300000, guid: 47c9b5df0ab681d4eaf4f2739a4dda7b, type: 3}
    - time: 3.5666666
      value: {fileID: 21300000, guid: 2aa44f33311af8d4eab0ba2cd3a4407f, type: 3}
    - time: 3.5833333
      value: {fileID: 21300000, guid: 9ca7cc4e882c5464aaaeb1f34189e96e, type: 3}
    - time: 3.6
      value: {fileID: 21300000, guid: b2fa150ff178c1b4c9e764ada3a8e9e8, type: 3}
    - time: 3.6166666
      value: {fileID: 21300000, guid: 20aac11634ec3164a8d807e065b19b38, type: 3}
    - time: 3.6333334
      value: {fileID: 21300000, guid: 5b7f1249facf0844e8f1566ba53728fc, type: 3}
    - time: 3.65
      value: {fileID: 21300000, guid: ab7c9dda48dcf024db8782ccc1f7e5bf, type: 3}
    - time: 3.6666667
      value: {fileID: 21300000, guid: 223fe7e0eaa9d864f8fba17d8a1bcb12, type: 3}
    - time: 3.6833334
      value: {fileID: 21300000, guid: 42c403d3d68cd654abc7a39bf0bd5644, type: 3}
    - time: 3.7
      value: {fileID: 21300000, guid: 965d6354b5d310e4c9a86472af6def2f, type: 3}
    - time: 3.7166667
      value: {fileID: 21300000, guid: 716bef9da234d3a4892c2f638518973b, type: 3}
    - time: 3.7333333
      value: {fileID: 21300000, guid: b2a94066e6bfea444bca8d972cd67b91, type: 3}
    attribute: m_Sprite
    path: 
    classID: 114
    script: {fileID: 11500000, guid: fe87c0e1cc204ed48ad3b37840f39efc, type: 3}
  m_SampleRate: 60
  m_WrapMode: 0
  m_Bounds:
    m_Center: {x: 0, y: 0, z: 0}
    m_Extent: {x: 0, y: 0, z: 0}
  m_ClipBindingConstant:
    genericBindings:
    - serializedVersion: 2
      path: 0
      attribute: 2015549526
      script: {fileID: 11500000, guid: fe87c0e1cc204ed48ad3b37840f39efc, type: 3}
      typeID: 114
      customType: 0
      isPPtrCurve: 1
    pptrCurveMapping:
    - {fileID: 21300000, guid: f2940ac9110fc224bbc2fc93b1b6c36d, type: 3}
    - {fileID: 21300000, guid: 93d2c43cfe792cc448873fee28594a29, type: 3}
    - {fileID: 21300000, guid: dadea5d68d407394485c799fa3c91a40, type: 3}
    - {fileID: 21300000, guid: b170c8b1b14a3884fb53cfe8a2eed31e, type: 3}
    - {fileID: 21300000, guid: 5e32adc341924484f83fd30b1a5c77c3, type: 3}
    - {fileID: 21300000, guid: 9e5beed09ea941e49bd988f955231527, type: 3}
    - {fileID: 21300000, guid: 2ab72c99911a7ad46888673174c845ae, type: 3}
    - {fileID: 21300000, guid: 44289781341d90a4fa2551e8a1399ea9, type: 3}
    - {fileID: 21300000, guid: d33a8f80b7b024b449d5f0600b91fe2b, type: 3}
    - {fileID: 21300000, guid: 49459635a54f96e4088954ba86bb3144, type: 3}
    - {fileID: 21300000, guid: 90ef83d606d8496449a2ff0476b5814c, type: 3}
    - {fileID: 21300000, guid: 4073a21aa6e842f4bb9eec13dd63a283, type: 3}
    - {fileID: 21300000, guid: af154e7cc003f584e8cae472a555008e, type: 3}
    - {fileID: 21300000, guid: 432df547e1a348e4180c3ad9644a75cd, type: 3}
    - {fileID: 21300000, guid: 0c47d1b8f0ea67b4baa6a5b02313cd3b, type: 3}
    - {fileID: 21300000, guid: 47bed781c1667fb4ea56d7e6fba0a9d2, type: 3}
    - {fileID: 21300000, guid: 2919f9ee1d23caf4e8c03fb0f07aebe9, type: 3}
    - {fileID: 21300000, guid: 7500fc042d92ffc49bbb913cc5a066e1, type: 3}
    - {fileID: 21300000, guid: 78dad8d61f8b83643b21ca0b05893eb2, type: 3}
    - {fileID: 21300000, guid: ff72275f3bcfdbe4897aecb4a2ac8322, type: 3}
    - {fileID: 21300000, guid: ae0fc81fd88c54b498c31129264b81ea, type: 3}
    - {fileID: 21300000, guid: 8d810ae8f26ce4f4c918560b19d8d39f, type: 3}
    - {fileID: 21300000, guid: 2ee93a8bd27428d41804b042efbc8f69, type: 3}
    - {fileID: 21300000, guid: eab128278f828324c9c9e01c09908533, type: 3}
    - {fileID: 21300000, guid: b074fd6e82433a24b90c82cac597ef50, type: 3}
    - {fileID: 21300000, guid: f26af68d56f2f024999fdc2145e2a8f3, type: 3}
    - {fileID: 21300000, guid: 058fc9fceaa4aff43a74c034218b4809, type: 3}
    - {fileID: 21300000, guid: e1031caf52b25314ca902013a16b1b30, type: 3}
    - {fileID: 21300000, guid: 9be6e7e6aeddaaf40942e10a24adbd3b, type: 3}
    - {fileID: 21300000, guid: 103b1478c53d7c6419f91015fd3a1bb4, type: 3}
    - {fileID: 21300000, guid: 82c581060f05a294e9f8cfbdb42d2381, type: 3}
    - {fileID: 21300000, guid: 045bbc8a0ab9a084ebb35f8f587a3784, type: 3}
    - {fileID: 21300000, guid: 89d420e88e117754e9daed17476e2ceb, type: 3}
    - {fileID: 21300000, guid: 52b30517bee9a824a97cf2da1126da60, type: 3}
    - {fileID: 21300000, guid: 22682493d03f5954cb178e08194c950a, type: 3}
    - {fileID: 21300000, guid: fd6138150b1681d428c843908bc0a75b, type: 3}
    - {fileID: 21300000, guid: 63386dc1ba83e9d498bfbdf88dd52952, type: 3}
    - {fileID: 21300000, guid: 07436b99658c7ed4c97ab2963ded00a1, type: 3}
    - {fileID: 21300000, guid: 9b01218c52bef504a9da6f862d2494de, type: 3}
    - {fileID: 21300000, guid: a8ec0a0dad513ea419a9da8e1205c178, type: 3}
    - {fileID: 21300000, guid: a88a9ba5b7bc0804da816484cde415e7, type: 3}
    - {fileID: 21300000, guid: bb801c26275099147acd0796a9f8ab1d, type: 3}
    - {fileID: 21300000, guid: 9333c55add52149468de8e3d1072b83c, type: 3}
    - {fileID: 21300000, guid: c073496401a76e24a9d0e38afff4e6b6, type: 3}
    - {fileID: 21300000, guid: 76ccb0d59c803454dbca94643eb4967c, type: 3}
    - {fileID: 21300000, guid: 2195d94b2ecee4c4ab21c79e94d141b2, type: 3}
    - {fileID: 21300000, guid: ed8161370b8c45d44ae0e2ba6dde89c5, type: 3}
    - {fileID: 21300000, guid: 209b51c9ff7b8c44ab4551c77a0c4ad8, type: 3}
    - {fileID: 21300000, guid: 5dcda92b47658dd4994be905e286eec4, type: 3}
    - {fileID: 21300000, guid: 139b905fecf1e84479210ce4b06b5b4c, type: 3}
    - {fileID: 21300000, guid: 7beaf4ca88467d1498da968c11ca5f96, type: 3}
    - {fileID: 21300000, guid: d1dabd0c1d9a0e744a40bbed51e4f16e, type: 3}
    - {fileID: 21300000, guid: 4047be37abf3fe946a484169ff7490bb, type: 3}
    - {fileID: 21300000, guid: 9f88be6588617854ebbf8cefcf40e026, type: 3}
    - {fileID: 21300000, guid: 11af1627ee0f54b44832f507d9d2a63d, type: 3}
    - {fileID: 21300000, guid: 0ae8a5d6b0891db49afb4fef7c9f9849, type: 3}
    - {fileID: 21300000, guid: 213148053527dc1468058347026317ae, type: 3}
    - {fileID: 21300000, guid: d59020c90867f244d8266ae82cc58e0b, type: 3}
    - {fileID: 21300000, guid: 28bc9156eae5cdf418aa985f722d19b9, type: 3}
    - {fileID: 21300000, guid: ca4bf027db223824782ab39209c650a7, type: 3}
    - {fileID: 21300000, guid: 0284b7f14fb902a41a961b894940d305, type: 3}
    - {fileID: 21300000, guid: 3a2916e8d66d41f4f8da2bee52ad3703, type: 3}
    - {fileID: 21300000, guid: cdbbe072e050c9143925f3eccd95b4c3, type: 3}
    - {fileID: 21300000, guid: 68fb37e16d366174ab107385244fdea3, type: 3}
    - {fileID: 21300000, guid: a1aa4c1e3a9bbbf47842bf7fc63069b6, type: 3}
    - {fileID: 21300000, guid: 0f3b733503526a045b1167d741bc4464, type: 3}
    - {fileID: 21300000, guid: 6cf870571b3223247bf59a80c15f1f37, type: 3}
    - {fileID: 21300000, guid: a490ecdead7f3a14eb9b22ce29717026, type: 3}
    - {fileID: 21300000, guid: a731dea1eb343b747923f52007190507, type: 3}
    - {fileID: 21300000, guid: 3c214152c38b5c146a42b930623a0f5c, type: 3}
    - {fileID: 21300000, guid: c895e8cc751d61142971efcd05196fa2, type: 3}
    - {fileID: 21300000, guid: ac64130595876df4fa0d1541e7b6aeee, type: 3}
    - {fileID: 21300000, guid: d9585739a3dc81544845460750915e90, type: 3}
    - {fileID: 21300000, guid: 49ea4f9ae58c1c649b9cc3bff9ba9ae0, type: 3}
    - {fileID: 21300000, guid: 46fc4cd5b1040a04497b5a4955d85ddf, type: 3}
    - {fileID: 21300000, guid: c219ded2b9e29fe4383eecf20f6f1566, type: 3}
    - {fileID: 21300000, guid: 5918d7cc53d82aa4788667a0c3a63486, type: 3}
    - {fileID: 21300000, guid: aec71f6dd948fab46959c69b4092bdd1, type: 3}
    - {fileID: 21300000, guid: b2a08bd6fce7e7e4cb2c3f0e95eb6705, type: 3}
    - {fileID: 21300000, guid: 03dadf551ec1b7a42966e7572105ba5b, type: 3}
    - {fileID: 21300000, guid: 01222a5a5f8e089469f54fe10ebcd964, type: 3}
    - {fileID: 21300000, guid: ebf09417dd3929e45b51b7d428136276, type: 3}
    - {fileID: 21300000, guid: e93262f489bf58546b9ac161d5a9753b, type: 3}
    - {fileID: 21300000, guid: 8fd311e6470038642921875e67a36113, type: 3}
    - {fileID: 21300000, guid: 4ccb4b3be0e9ecc489bd100ce2a7412b, type: 3}
    - {fileID: 21300000, guid: bd2fb8bf25e53ea4b8b3ea6c9b1a75ac, type: 3}
    - {fileID: 21300000, guid: b4a2071023157ad4f991d9d36e6cb6c6, type: 3}
    - {fileID: 21300000, guid: 0752a9bda86b35946899e303fe6d2b7a, type: 3}
    - {fileID: 21300000, guid: 4b24f66cda0f9644c9cb9b3c9add0357, type: 3}
    - {fileID: 21300000, guid: b373d21e8f47f5147ae493a8056f9f1c, type: 3}
    - {fileID: 21300000, guid: 7e11f456b6777ed4b97d92398034f615, type: 3}
    - {fileID: 21300000, guid: a005ae6dc512d7541b5a9a4ab4fcfae7, type: 3}
    - {fileID: 21300000, guid: 4db481930b7bd0545bd7665f9caca947, type: 3}
    - {fileID: 21300000, guid: d435aab3c30b1b346b299ab7063dbaa8, type: 3}
    - {fileID: 21300000, guid: 65e21e3cbad217f4bb855914186f9b40, type: 3}
    - {fileID: 21300000, guid: 0737dfb4e62214c40ace78142c34617e, type: 3}
    - {fileID: 21300000, guid: d28e029ccaedd864690eb765dd37baa0, type: 3}
    - {fileID: 21300000, guid: a748647091fc7ba4f908735cf33e4508, type: 3}
    - {fileID: 21300000, guid: e05dbbde88e9dba4f8bf29b8f3bf1868, type: 3}
    - {fileID: 21300000, guid: e6133da75499e3f40a2cb7baf0687092, type: 3}
    - {fileID: 21300000, guid: 9336f934266b2f64e8f09c20dd58b145, type: 3}
    - {fileID: 21300000, guid: b759001efaebac04fa7c8f7cc5183ad5, type: 3}
    - {fileID: 21300000, guid: e6b7031104d84e74a9eb05851381e4ab, type: 3}
    - {fileID: 21300000, guid: 048293e05a5367342973f7625f86e9da, type: 3}
    - {fileID: 21300000, guid: d9cbe55d7d106c945915b57a1dd0519f, type: 3}
    - {fileID: 21300000, guid: 16c2c15f1df387c48b1afac09aa8439d, type: 3}
    - {fileID: 21300000, guid: 2207eaf1f33b4e6439e6c6349699ef01, type: 3}
    - {fileID: 21300000, guid: e8cb52eac22078d4bb82f3e394c098ba, type: 3}
    - {fileID: 21300000, guid: a44cfb5b6f884c1468928de9e298a2b5, type: 3}
    - {fileID: 21300000, guid: 08537927a3280c946b3f2812ae1bd61f, type: 3}
    - {fileID: 21300000, guid: 542ba618452252f4985ab8ecc1de3f4a, type: 3}
    - {fileID: 21300000, guid: 2fa1eacd78b34404198dc4f50f586a61, type: 3}
    - {fileID: 21300000, guid: f79cda661c7ee474db87024d444cf108, type: 3}
    - {fileID: 21300000, guid: 3820f51f966cba7458d7865888418a0b, type: 3}
    - {fileID: 21300000, guid: 983f2d19dda01be44b9e782d76fae6e8, type: 3}
    - {fileID: 21300000, guid: 592ad1e3cf5675c4a829fc54581bdab3, type: 3}
    - {fileID: 21300000, guid: 5879dfdfef321634da30e06647ef052c, type: 3}
    - {fileID: 21300000, guid: bc1cb0e4ff534e746aa779328fe85f41, type: 3}
    - {fileID: 21300000, guid: 7b4cb3b77c96dc2458c319a1a18e612d, type: 3}
    - {fileID: 21300000, guid: 9b27e881d2a36c245ae8b0990f88257e, type: 3}
    - {fileID: 21300000, guid: 3ff44062a43dd84448d8c98d0d994d91, type: 3}
    - {fileID: 21300000, guid: 2c6401d9891ea254887b2bcd50dc0b33, type: 3}
    - {fileID: 21300000, guid: 209919c646bcc074c80d78db59f33448, type: 3}
    - {fileID: 21300000, guid: 4b17c35cd0f6dc040ac6a1d8795dd0d6, type: 3}
    - {fileID: 21300000, guid: b4038bb89d7fba14abc068d186b896f6, type: 3}
    - {fileID: 21300000, guid: 3622b49635784f44c9243950b278202b, type: 3}
    - {fileID: 21300000, guid: 3e9258dba324d5d44ba3c315050baa03, type: 3}
    - {fileID: 21300000, guid: bd40ad8a6594a4a4da1348105684fbad, type: 3}
    - {fileID: 21300000, guid: 7b04c7ef852c193449d67c7339531f57, type: 3}
    - {fileID: 21300000, guid: c59389a473a6f4e488aa824ecd2efbeb, type: 3}
    - {fileID: 21300000, guid: 8daf963697e2e4440951fe43ab5829a1, type: 3}
    - {fileID: 21300000, guid: 199613d681c16ab428d48425288a8abc, type: 3}
    - {fileID: 21300000, guid: 9c688d92eb774ee4e887abd5c511606c, type: 3}
    - {fileID: 21300000, guid: cf9d68d8a6839be4297b62fe60fee2a0, type: 3}
    - {fileID: 21300000, guid: f6c67ab445b6f864b982703010aa5de1, type: 3}
    - {fileID: 21300000, guid: 0e225c697e8714a458ae5b580d493373, type: 3}
    - {fileID: 21300000, guid: c084c48e40e7a094c9ed04a172f951ea, type: 3}
    - {fileID: 21300000, guid: 7dcbb190d32fd0a409c6636c0bf8bb08, type: 3}
    - {fileID: 21300000, guid: b2963cd1555e5fd4a8cb5005e504af37, type: 3}
    - {fileID: 21300000, guid: f6726ab241c2067429b82db464275f1a, type: 3}
    - {fileID: 21300000, guid: 679b3d05c68e6614094334fc5312c4c9, type: 3}
    - {fileID: 21300000, guid: 03dce13c84a07f94980a8ab79910fad6, type: 3}
    - {fileID: 21300000, guid: 434619bbb65aaea4b953a16485e0170d, type: 3}
    - {fileID: 21300000, guid: fc4054b37ce44cc42afcab5db2b3aa1e, type: 3}
    - {fileID: 21300000, guid: 85f8622ed0a8c8244b389d3c8cedc705, type: 3}
    - {fileID: 21300000, guid: 9383b6e2235046b41b380d91a6f3e6fc, type: 3}
    - {fileID: 21300000, guid: b19f51267e6e2ce4ea6df8b02b094964, type: 3}
    - {fileID: 21300000, guid: 98823fb506d93d849ad35bb7fc8cbdbc, type: 3}
    - {fileID: 21300000, guid: 1b1ff4ac8aa17d5409483e7c5735b6b0, type: 3}
    - {fileID: 21300000, guid: 71a1a047c8a3eaa4c91dd19269ada411, type: 3}
    - {fileID: 21300000, guid: 6ac9f2d9370aa63478ccda411262107b, type: 3}
    - {fileID: 21300000, guid: 670ef67cbc1e9bb42a7a3d53c29fdb11, type: 3}
    - {fileID: 21300000, guid: e3eb1136a2995f74f920db8bbceb1081, type: 3}
    - {fileID: 21300000, guid: 9ec49130bcf55a54c970dabf56a1a6a1, type: 3}
    - {fileID: 21300000, guid: 2ad0d9a319a4ac44e87dc19a7afc30ee, type: 3}
    - {fileID: 21300000, guid: be49846da9a76a747a4a5e0ab2059b72, type: 3}
    - {fileID: 21300000, guid: 8629d4fc2a2f7c94f89bf5008cfb5bee, type: 3}
    - {fileID: 21300000, guid: de016dcd7f0465a44921866c43513aa8, type: 3}
    - {fileID: 21300000, guid: 20163d876630c7d46a41c8415bdc0fd8, type: 3}
    - {fileID: 21300000, guid: 776106ff1b74f734e886c201293aeb7e, type: 3}
    - {fileID: 21300000, guid: 4b2d056285f02e34482609fd0d72c7bb, type: 3}
    - {fileID: 21300000, guid: 1a1f7f6e9cb01e54080203cb704b08ee, type: 3}
    - {fileID: 21300000, guid: b3b4ffdaee6cb1946b046779f90f4b2d, type: 3}
    - {fileID: 21300000, guid: c9c3fdfe70fd06e44b45c4eb62c1820e, type: 3}
    - {fileID: 21300000, guid: 47d944daf72a1924c8ae6455df949ec5, type: 3}
    - {fileID: 21300000, guid: c453d1d90efc22b46808485d5e0135f9, type: 3}
    - {fileID: 21300000, guid: 572ef53eb93cd23418c3c44384441aec, type: 3}
    - {fileID: 21300000, guid: 35a0a5ea5969f1c45b3302f3e3a6bb44, type: 3}
    - {fileID: 21300000, guid: 7433305472f7d3a45ab31af249e0d05e, type: 3}
    - {fileID: 21300000, guid: d04924bb1944318468c53d628cb92bde, type: 3}
    - {fileID: 21300000, guid: a33b589e28cecbe49b10b80490538c09, type: 3}
    - {fileID: 21300000, guid: 1788ee639b741f442b0c182ba714a62d, type: 3}
    - {fileID: 21300000, guid: f8a325117e9540c45844599720f4d79a, type: 3}
    - {fileID: 21300000, guid: e845f3ddb50a1814d8cd80654f61c909, type: 3}
    - {fileID: 21300000, guid: 01f8e5dc6e5535e4ab15946475876f09, type: 3}
    - {fileID: 21300000, guid: 8f72b30f6d2bca943886b4b343ce4358, type: 3}
    - {fileID: 21300000, guid: 9197dccf8c754534c96d24ed69a1b5c2, type: 3}
    - {fileID: 21300000, guid: b2cfec16ccb8f8b4ab4ca8d613b5a219, type: 3}
    - {fileID: 21300000, guid: 454aca9358b88c643ab1b9de7900aa15, type: 3}
    - {fileID: 21300000, guid: 2fcc5916be0d672428c684e04bc9b840, type: 3}
    - {fileID: 21300000, guid: 8cc5da2dd4e3f2a49af71c5512f94f0b, type: 3}
    - {fileID: 21300000, guid: 6073a75458c0dce46ae9edc669b64679, type: 3}
    - {fileID: 21300000, guid: 4486e5ef743de8b47b3fd631c059f77d, type: 3}
    - {fileID: 21300000, guid: b15dd6a7678111146b77d1cba3f57d59, type: 3}
    - {fileID: 21300000, guid: 84698266f04cea147969f943a455fce8, type: 3}
    - {fileID: 21300000, guid: 3409e2584b77b8642a8720da8abf5f23, type: 3}
    - {fileID: 21300000, guid: e5603a36b7ca84d46b5b623e8857f851, type: 3}
    - {fileID: 21300000, guid: eca07d2cd684e8d43a6922d91cde0dc9, type: 3}
    - {fileID: 21300000, guid: 001e80c13460d40438c487441c1470ee, type: 3}
    - {fileID: 21300000, guid: 6cdb7e964f627a94d99e9992c8f0e15c, type: 3}
    - {fileID: 21300000, guid: db6a1c0a64b412b45be19db4382ac314, type: 3}
    - {fileID: 21300000, guid: 389b6e90dc8ba384ea220deb063d58b7, type: 3}
    - {fileID: 21300000, guid: 7c7a605cc83cc3e43b25b933316a7d39, type: 3}
    - {fileID: 21300000, guid: 8a8147e785085944daab2399398c02df, type: 3}
    - {fileID: 21300000, guid: 9cd51a4f9de611d47abd35eeb0175207, type: 3}
    - {fileID: 21300000, guid: 3bd6a05d093726e4f838097b10c5ff04, type: 3}
    - {fileID: 21300000, guid: aa95caf223c8a0642bcf417fc93c0fbd, type: 3}
    - {fileID: 21300000, guid: 7c448922ae72df24885a0b36f86a8655, type: 3}
    - {fileID: 21300000, guid: ebbe3841c1734f64faaeb3193c391b18, type: 3}
    - {fileID: 21300000, guid: b6421abe3f3bbdb4d97e60428664ac24, type: 3}
    - {fileID: 21300000, guid: 28cf548b3cb33dc4f89e26ec1c57ce80, type: 3}
    - {fileID: 21300000, guid: 7a8c5afb93f4a154c960383ed95add45, type: 3}
    - {fileID: 21300000, guid: d040cad9cb18e0d4fbcb8c2ba3762fde, type: 3}
    - {fileID: 21300000, guid: 430f61aae1471444fa8e7b8895705a95, type: 3}
    - {fileID: 21300000, guid: f0506f66f5b68974693993b783c42e7d, type: 3}
    - {fileID: 21300000, guid: ca295421db394904397a10b9481f52d5, type: 3}
    - {fileID: 21300000, guid: c02f4c5035c9f5848b5815bd7b1b86f2, type: 3}
    - {fileID: 21300000, guid: 81db3fe6a27788a4c9eebbb977080f37, type: 3}
    - {fileID: 21300000, guid: 2a374635962a6b0439e878e6e711dfad, type: 3}
    - {fileID: 21300000, guid: 984bcb7a98f40664e84d4e4ed35993fb, type: 3}
    - {fileID: 21300000, guid: 4b33f3f541cc1e2428034425330fd054, type: 3}
    - {fileID: 21300000, guid: 463a49e175e65b6408e1f1058affc433, type: 3}
    - {fileID: 21300000, guid: 623f02b5f2c67bc45b6b37236c49fea6, type: 3}
    - {fileID: 21300000, guid: 47c9b5df0ab681d4eaf4f2739a4dda7b, type: 3}
    - {fileID: 21300000, guid: 2aa44f33311af8d4eab0ba2cd3a4407f, type: 3}
    - {fileID: 21300000, guid: 9ca7cc4e882c5464aaaeb1f34189e96e, type: 3}
    - {fileID: 21300000, guid: b2fa150ff178c1b4c9e764ada3a8e9e8, type: 3}
    - {fileID: 21300000, guid: 20aac11634ec3164a8d807e065b19b38, type: 3}
    - {fileID: 21300000, guid: 5b7f1249facf0844e8f1566ba53728fc, type: 3}
    - {fileID: 21300000, guid: ab7c9dda48dcf024db8782ccc1f7e5bf, type: 3}
    - {fileID: 21300000, guid: 223fe7e0eaa9d864f8fba17d8a1bcb12, type: 3}
    - {fileID: 21300000, guid: 42c403d3d68cd654abc7a39bf0bd5644, type: 3}
    - {fileID: 21300000, guid: 965d6354b5d310e4c9a86472af6def2f, type: 3}
    - {fileID: 21300000, guid: 716bef9da234d3a4892c2f638518973b, type: 3}
    - {fileID: 21300000, guid: b2a94066e6bfea444bca8d972cd67b91, type: 3}
  m_AnimationClipSettings:
    serializedVersion: 2
    m_AdditiveReferencePoseClip: {fileID: 0}
    m_AdditiveReferencePoseTime: 0
    m_StartTime: 0
    m_StopTime: 3.75
    m_OrientationOffsetY: 0
    m_Level: 0
    m_CycleOffset: 0
    m_HasAdditiveReferencePose: 0
    m_LoopTime: 0
    m_LoopBlend: 0
    m_LoopBlendOrientation: 0
    m_LoopBlendPositionY: 0
    m_LoopBlendPositionXZ: 0
    m_KeepOriginalOrientation: 0
    m_KeepOriginalPositionY: 1
    m_KeepOriginalPositionXZ: 0
    m_HeightFromFeet: 0
    m_Mirror: 0
  m_EditorCurves: []
  m_EulerEditorCurves: []
  m_HasGenericRootTransform: 0
  m_HasMotionFloatCurves: 0
  m_Events: []
