%YAML 1.1
%TAG !u! tag:unity3d.com,2011:
--- !u!114 &11400000
MonoBehaviour:
  m_ObjectHideFlags: 0
  m_CorrespondingSourceObject: {fileID: 0}
  m_PrefabInstance: {fileID: 0}
  m_PrefabAsset: {fileID: 0}
  m_GameObject: {fileID: 0}
  m_Enabled: 1
  m_EditorHideFlags: 0
  m_Script: {fileID: 11500000, guid: 848409ee8ba454f42a5ddff137688a27, type: 3}
  m_Name: ReferenceImageLibrary
  m_EditorClassIdentifier: 
  m_GuidLow: 4988141128211763152
  m_GuidHigh: 17794509941758254727
  m_DataStore:
    m_Storage: []
  m_Images:
  - m_SerializedGuid:
      m_GuidLow: 5750053796393780792
      m_GuidHigh: 11750537945718631583
    m_SerializedTextureGuid:
      m_GuidLow: 13020545688776795305
      m_GuidHigh: 7385740020572345610
    m_Size: {x: 0.1, y: 0.056250002}
    m_SpecifySize: 1
    m_Name: Target1
    m_Texture: {fileID: 0}
  - m_SerializedGuid:
      m_GuidLow: 5195101802674536651
      m_GuidHigh: 8406054580479997614
    m_SerializedTextureGuid:
      m_GuidLow: 10693994317554845004
      m_GuidHigh: 16851493472391814153
    m_Size: {x: 0.1, y: 0.056250002}
    m_SpecifySize: 1
    m_Name: Target2
    m_Texture: {fileID: 0}
  - m_SerializedGuid:
      m_GuidLow: 5122856475339660850
      m_GuidHigh: 890730085687406981
    m_SerializedTextureGuid:
      m_GuidLow: 4930075001583568089
      m_GuidHigh: 435413360682543211
    m_Size: {x: 0.1, y: 0.056250002}
    m_SpecifySize: 1
    m_Name: Target3
    m_Texture: {fileID: 0}
  - m_SerializedGuid:
      m_GuidLow: 5252781695947605352
      m_GuidHigh: 2975291194555117187
    m_SerializedTextureGuid:
      m_GuidLow: 11887580774818401079
      m_GuidHigh: 7702400610804893976
    m_Size: {x: 0.1, y: 0.056250002}
    m_SpecifySize: 1
    m_Name: Target4
    m_Texture: {fileID: 0}
